{"name":"a. Listar usuarios y validar que la respuesta contenga al menos un usuario","id":"gestion-de-usuarios-en-reqres.in-project-api;a.-listar-usuarios-y-validar-que-la-respuesta-contenga-al-menos-un-usuario","scenarioId":"reqres-users:a. Listar usuarios y validar que la respuesta contenga al menos un usuario","methodName":"a. Listar usuarios y validar que la respuesta contenga al menos un usuario","testSteps":[{"number":1,"description":"Given el analista puede consumir la API de reqres.in","duration":0,"startTime":"2026-04-16T00:17:28.085835954-05:00[America/Bogota]","result":"SUCCESS","precondition":false,"level":0},{"number":2,"description":"Given el servicio de usuarios esta disponible","duration":421,"startTime":"2026-04-16T00:17:28.086161007-05:00[America/Bogota]","result":"SUCCESS","precondition":false,"level":0,"children":[{"number":3,"description":"Analista solicita la lista de usuarios","duration":408,"startTime":"2026-04-16T00:17:28.087349868-05:00[America/Bogota]","result":"SUCCESS","precondition":false,"level":1,"children":[{"number":4,"description":"Analista executes a GET on the resource /api/collections/users/records","duration":406,"startTime":"2026-04-16T00:17:28.089251566-05:00[America/Bogota]","result":"SUCCESS","precondition":false,"level":2,"children":[{"number":5,"description":"GET https://reqres.in/api/collections/users/records?page\u003d1\u0026limit\u003d10","duration":0,"startTime":"2026-04-16T00:17:29.459240182-05:00[America/Bogota]","result":"SUCCESS","restQuery":{"method":"GET","path":"https://reqres.in/api/collections/users/records?page\u003d1\u0026limit\u003d10","content":"","contentType":"application/json","requestHeaders":"x-api-key\u003dpro_b8fd042b031bf3f7730537b27c4bd1b4d63f6380faa969ccbfe1c9bda2bc3c9a\n\t\t\t\tAccept\u003d*/*\n\t\t\t\tContent-Type\u003dapplication/json","requestCookies":"","responseHeaders":"Date: Thu, 16 Apr 2026 05:17:28 GMT\nContent-Type: application/json; charset\u003dutf-8\nTransfer-Encoding: chunked\nConnection: keep-alive\nAccess-Control-Allow-Origin: *\nCache-Control: no-store\nCross-Origin-Opener-Policy: same-origin\nCross-Origin-Resource-Policy: same-origin\nEtag: W/\"e1f-RdfBdBuVSd8Q2zA0q/oZCzwdYqs\"\nNel: {\"report_to\":\"heroku-nel\",\"response_headers\":[\"Via\"],\"max_age\":3600,\"success_fraction\":0.01,\"failure_fraction\":0.1}\nOrigin-Agent-Cluster: ?1\nReferrer-Policy: strict-origin-when-cross-origin\nReport-To: {\"group\":\"heroku-nel\",\"endpoints\":[{\"url\":\"https://nel.heroku.com/reports?s\u003dFevMRT3vvRVfPzly0xh7XMF2LZkz7FUKUBYouQF1sq0%3D\\u0026sid\u003dc4c9725f-1ab0-44d8-820f-430df2718e11\\u0026ts\u003d1776316648\"}],\"max_age\":3600}\nReporting-Endpoints: heroku-nel\u003d\"https://nel.heroku.com/reports?s\u003dFevMRT3vvRVfPzly0xh7XMF2LZkz7FUKUBYouQF1sq0%3D\u0026sid\u003dc4c9725f-1ab0-44d8-820f-430df2718e11\u0026ts\u003d1776316648\"\nServer: cloudflare\nStrict-Transport-Security: max-age\u003d31536000; includeSubDomains\nVia: 1.1 heroku-router\nX-Content-Type-Options: nosniff\nX-Dns-Prefetch-Control: off\nX-Download-Options: noopen\nX-Frame-Options: DENY\nX-Permitted-Cross-Domain-Policies: none\nX-Ratelimit-Limit: 250\nX-Ratelimit-Remaining: 26\nX-Ratelimit-Reset: 1776384000\nX-Reqres-Limit-Warning: {\"type\":\"api_calls\",\"used\":224,\"limit\":250,\"percentage\":90}\nX-Reqres-Trial: true\nX-Reqres-Trial-Days-Remaining: 14\nX-Reqres-Trial-Expires: 2026-04-29T16:27:54.402Z\nX-Request-Id: 6a9c7366-fc44-20ed-102e-18b83b057147\nX-Robots-Tag: noindex, nofollow\nX-Xss-Protection: 0\ncf-cache-status: BYPASS\nContent-Encoding: gzip\nCF-RAY: 9ed0b94c3fc6e308-MIA","responseCookies":"","responseBody":"{\n    \"data\": [\n        {\n            \"id\": \"4d8efe1e-eba4-4366-8d7f-c3243b942d64\",\n            \"collection_id\": \"948a60c7-27ed-4df4-a8ce-4da97ed12328\",\n            \"project_id\": 12827,\n            \"app_user_id\": null,\n            \"created_by\": 106710,\n            \"created_at\": \"2026-04-16T05:17:28.405Z\",\n            \"updated_at\": \"2026-04-16T05:17:28.405Z\",\n            \"deleted_at\": null,\n            \"data\": {\n                \"email\": \"andreu.test@example.com\",\n                \"last_name\": \"Sarmiento\",\n                \"first_name\": \"Andreu\"\n            }\n        },\n        {\n            \"id\": \"da091114-6179-4f6a-90c9-d07eb04041ad\",\n            \"collection_id\": \"948a60c7-27ed-4df4-a8ce-4da97ed12328\",\n            \"project_id\": 12827,\n            \"app_user_id\": null,\n            \"created_by\": 106710,\n            \"created_at\": \"2026-04-16T05:17:27.215Z\",\n            \"updated_at\": \"2026-04-16T05:17:27.754Z\",\n            \"deleted_at\": null,\n            \"data\": {\n                \"email\": \"andreu.updated@example.com\",\n                \"last_name\": \"Sarmiento Updated\",\n                \"first_name\": \"Andreu Updated\"\n            }\n        },\n        {\n            \"id\": \"612fdf7b-9091-4de9-95be-fc8502913da7\",\n            \"collection_id\": \"948a60c7-27ed-4df4-a8ce-4da97ed12328\",\n            \"project_id\": 12827,\n            \"app_user_id\": null,\n            \"created_by\": 106710,\n            \"created_at\": \"2026-04-16T05:17:26.348Z\",\n            \"updated_at\": \"2026-04-16T05:17:26.348Z\",\n            \"deleted_at\": null,\n            \"data\": {\n                \"email\": \"andreu.test@example.com\",\n                \"last_name\": \"Sarmiento\",\n                \"first_name\": \"Andreu\"\n            }\n        },\n        {\n            \"id\": \"43dacdf4-b52e-4467-8ddd-78157d831fea\",\n            \"collection_id\": \"948a60c7-27ed-4df4-a8ce-4da97ed12328\",\n            \"project_id\": 12827,\n            \"app_user_id\": null,\n            \"created_by\": 106710,\n            \"created_at\": \"2026-04-16T05:04:33.761Z\",\n            \"updated_at\": \"2026-04-16T05:04:34.264Z\",\n            \"deleted_at\": null,\n            \"data\": {\n                \"email\": \"andreu.updated@example.com\",\n                \"last_name\": \"Sarmiento Updated\",\n                \"first_name\": \"Andreu Updated\"\n            }\n        },\n        {\n            \"id\": \"d6b31e25-0b92-4ed6-a975-2f49849b3fe4\",\n            \"collection_id\": \"948a60c7-27ed-4df4-a8ce-4da97ed12328\",\n            \"project_id\": 12827,\n            \"app_user_id\": null,\n            \"created_by\": 106710,\n            \"created_at\": \"2026-04-16T05:04:33.346Z\",\n            \"updated_at\": \"2026-04-16T05:04:33.346Z\",\n            \"deleted_at\": null,\n            \"data\": {\n                \"email\": \"andreu.test@example.com\",\n                \"last_name\": \"Sarmiento\",\n                \"first_name\": \"Andreu\"\n            }\n        },\n        {\n            \"id\": \"3ed1834c-4f3f-482c-aed2-edaf47cb9868\",\n            \"collection_id\": \"948a60c7-27ed-4df4-a8ce-4da97ed12328\",\n            \"project_id\": 12827,\n            \"app_user_id\": null,\n            \"created_by\": 106710,\n            \"created_at\": \"2026-04-16T05:04:31.889Z\",\n            \"updated_at\": \"2026-04-16T05:04:32.483Z\",\n            \"deleted_at\": null,\n            \"data\": {\n                \"email\": \"andreu.updated@example.com\",\n                \"last_name\": \"Sarmiento Updated\",\n                \"first_name\": \"Andreu Updated\"\n            }\n        },\n        {\n            \"id\": \"dd3ee710-fda2-4346-8e32-d7f4cc597c57\",\n            \"collection_id\": \"948a60c7-27ed-4df4-a8ce-4da97ed12328\",\n            \"project_id\": 12827,\n            \"app_user_id\": null,\n            \"created_by\": 106710,\n            \"created_at\": \"2026-04-16T05:04:31.000Z\",\n            \"updated_at\": \"2026-04-16T05:04:31.000Z\",\n            \"deleted_at\": null,\n            \"data\": {\n                \"email\": \"andreu.test@example.com\",\n                \"last_name\": \"Sarmiento\",\n                \"first_name\": \"Andreu\"\n            }\n        },\n        {\n            \"id\": \"02186bc6-83df-4f9e-a733-cc4ebdedfdfd\",\n            \"collection_id\": \"948a60c7-27ed-4df4-a8ce-4da97ed12328\",\n            \"project_id\": 12827,\n            \"app_user_id\": null,\n            \"created_by\": 106710,\n            \"created_at\": \"2026-04-16T05:01:36.453Z\",\n            \"updated_at\": \"2026-04-16T05:01:36.949Z\",\n            \"deleted_at\": null,\n            \"data\": {\n                \"email\": \"andreu.updated@example.com\",\n                \"last_name\": \"Sarmiento Updated\",\n                \"first_name\": \"Andreu Updated\"\n            }\n        },\n        {\n            \"id\": \"ebbd0b53-8e1c-4341-8418-e675bb5b3c71\",\n            \"collection_id\": \"948a60c7-27ed-4df4-a8ce-4da97ed12328\",\n            \"project_id\": 12827,\n            \"app_user_id\": null,\n            \"created_by\": 106710,\n            \"created_at\": \"2026-04-16T05:01:36.025Z\",\n            \"updated_at\": \"2026-04-16T05:01:36.025Z\",\n            \"deleted_at\": null,\n            \"data\": {\n                \"email\": \"andreu.test@example.com\",\n                \"last_name\": \"Sarmiento\",\n                \"first_name\": \"Andreu\"\n            }\n        },\n        {\n            \"id\": \"fedcd9a1-a366-4a86-aadb-e1b097b10798\",\n            \"collection_id\": \"948a60c7-27ed-4df4-a8ce-4da97ed12328\",\n            \"project_id\": 12827,\n            \"app_user_id\": null,\n            \"created_by\": 106710,\n            \"created_at\": \"2026-04-16T05:01:34.836Z\",\n            \"updated_at\": \"2026-04-16T05:01:35.376Z\",\n            \"deleted_at\": null,\n            \"data\": {\n                \"email\": \"andreu.updated@example.com\",\n                \"last_name\": \"Sarmiento Updated\",\n                \"first_name\": \"Andreu Updated\"\n            }\n        }\n    ],\n    \"meta\": {\n        \"page\": 1,\n        \"limit\": 10,\n        \"total\": 80,\n        \"pages\": 8\n    }\n}","statusCode":200},"precondition":false,"level":3}]}]},{"number":6,"description":"Then response code should be (200)","duration":0,"startTime":"2026-04-16T00:17:28.496970074-05:00[America/Bogota]","result":"SUCCESS","precondition":false,"level":1},{"number":7,"description":"Then user list response should be not an empty collection","duration":9,"startTime":"2026-04-16T00:17:28.497649885-05:00[America/Bogota]","result":"SUCCESS","precondition":false,"level":1}]},{"number":8,"description":"When el analista solicita la lista de usuarios","duration":408,"startTime":"2026-04-16T00:17:28.507559181-05:00[America/Bogota]","result":"SUCCESS","precondition":false,"level":0,"children":[{"number":9,"description":"Analista solicita la lista de usuarios","duration":405,"startTime":"2026-04-16T00:17:28.509124117-05:00[America/Bogota]","result":"SUCCESS","precondition":false,"level":1,"children":[{"number":10,"description":"Analista executes a GET on the resource /api/collections/users/records","duration":402,"startTime":"2026-04-16T00:17:28.511730173-05:00[America/Bogota]","result":"SUCCESS","precondition":false,"level":2,"children":[{"number":11,"description":"GET https://reqres.in/api/collections/users/records?page\u003d1\u0026limit\u003d10","duration":0,"startTime":"2026-04-16T00:17:29.460117495-05:00[America/Bogota]","result":"SUCCESS","restQuery":{"method":"GET","path":"https://reqres.in/api/collections/users/records?page\u003d1\u0026limit\u003d10","content":"","contentType":"application/json","requestHeaders":"x-api-key\u003dpro_b8fd042b031bf3f7730537b27c4bd1b4d63f6380faa969ccbfe1c9bda2bc3c9a\n\t\t\t\tAccept\u003d*/*\n\t\t\t\tContent-Type\u003dapplication/json","requestCookies":"","responseHeaders":"Date: Thu, 16 Apr 2026 05:17:28 GMT\nContent-Type: application/json; charset\u003dutf-8\nTransfer-Encoding: chunked\nConnection: keep-alive\nAccess-Control-Allow-Origin: *\nCache-Control: no-store\nCross-Origin-Opener-Policy: same-origin\nCross-Origin-Resource-Policy: same-origin\nEtag: W/\"e07-Ea3pPGvwpgFt+DaH5rPfblkHn+M\"\nNel: {\"report_to\":\"heroku-nel\",\"response_headers\":[\"Via\"],\"max_age\":3600,\"success_fraction\":0.01,\"failure_fraction\":0.1}\nOrigin-Agent-Cluster: ?1\nReferrer-Policy: strict-origin-when-cross-origin\nReport-To: {\"group\":\"heroku-nel\",\"endpoints\":[{\"url\":\"https://nel.heroku.com/reports?s\u003dFevMRT3vvRVfPzly0xh7XMF2LZkz7FUKUBYouQF1sq0%3D\\u0026sid\u003dc4c9725f-1ab0-44d8-820f-430df2718e11\\u0026ts\u003d1776316648\"}],\"max_age\":3600}\nReporting-Endpoints: heroku-nel\u003d\"https://nel.heroku.com/reports?s\u003dFevMRT3vvRVfPzly0xh7XMF2LZkz7FUKUBYouQF1sq0%3D\u0026sid\u003dc4c9725f-1ab0-44d8-820f-430df2718e11\u0026ts\u003d1776316648\"\nServer: cloudflare\nStrict-Transport-Security: max-age\u003d31536000; includeSubDomains\nVia: 1.1 heroku-router\nX-Content-Type-Options: nosniff\nX-Dns-Prefetch-Control: off\nX-Download-Options: noopen\nX-Frame-Options: DENY\nX-Permitted-Cross-Domain-Policies: none\nX-Ratelimit-Limit: 250\nX-Ratelimit-Remaining: 23\nX-Ratelimit-Reset: 1776384000\nX-Reqres-Limit-Warning: {\"type\":\"api_calls\",\"used\":227,\"limit\":250,\"percentage\":91}\nX-Reqres-Trial: true\nX-Reqres-Trial-Days-Remaining: 14\nX-Reqres-Trial-Expires: 2026-04-29T16:27:54.402Z\nX-Request-Id: a80cfd65-b81a-99f6-845c-8a21e6691ddc\nX-Robots-Tag: noindex, nofollow\nX-Xss-Protection: 0\ncf-cache-status: BYPASS\nContent-Encoding: gzip\nCF-RAY: 9ed0b94ecf8ec880-MIA","responseCookies":"","responseBody":"{\n    \"data\": [\n        {\n            \"id\": \"7a6ac821-4446-4bdc-b9a2-656e800e40e5\",\n            \"collection_id\": \"948a60c7-27ed-4df4-a8ce-4da97ed12328\",\n            \"project_id\": 12827,\n            \"app_user_id\": null,\n            \"created_by\": 106710,\n            \"created_at\": \"2026-04-16T05:17:28.502Z\",\n            \"updated_at\": \"2026-04-16T05:17:28.502Z\",\n            \"deleted_at\": null,\n            \"data\": {\n                \"email\": \"precondition@test.com\",\n                \"last_name\": \"Condition\",\n                \"first_name\": \"Pre\"\n            }\n        },\n        {\n            \"id\": \"4d8efe1e-eba4-4366-8d7f-c3243b942d64\",\n            \"collection_id\": \"948a60c7-27ed-4df4-a8ce-4da97ed12328\",\n            \"project_id\": 12827,\n            \"app_user_id\": null,\n            \"created_by\": 106710,\n            \"created_at\": \"2026-04-16T05:17:28.405Z\",\n            \"updated_at\": \"2026-04-16T05:17:28.405Z\",\n            \"deleted_at\": null,\n            \"data\": {\n                \"email\": \"andreu.test@example.com\",\n                \"last_name\": \"Sarmiento\",\n                \"first_name\": \"Andreu\"\n            }\n        },\n        {\n            \"id\": \"da091114-6179-4f6a-90c9-d07eb04041ad\",\n            \"collection_id\": \"948a60c7-27ed-4df4-a8ce-4da97ed12328\",\n            \"project_id\": 12827,\n            \"app_user_id\": null,\n            \"created_by\": 106710,\n            \"created_at\": \"2026-04-16T05:17:27.215Z\",\n            \"updated_at\": \"2026-04-16T05:17:27.754Z\",\n            \"deleted_at\": null,\n            \"data\": {\n                \"email\": \"andreu.updated@example.com\",\n                \"last_name\": \"Sarmiento Updated\",\n                \"first_name\": \"Andreu Updated\"\n            }\n        },\n        {\n            \"id\": \"612fdf7b-9091-4de9-95be-fc8502913da7\",\n            \"collection_id\": \"948a60c7-27ed-4df4-a8ce-4da97ed12328\",\n            \"project_id\": 12827,\n            \"app_user_id\": null,\n            \"created_by\": 106710,\n            \"created_at\": \"2026-04-16T05:17:26.348Z\",\n            \"updated_at\": \"2026-04-16T05:17:26.348Z\",\n            \"deleted_at\": null,\n            \"data\": {\n                \"email\": \"andreu.test@example.com\",\n                \"last_name\": \"Sarmiento\",\n                \"first_name\": \"Andreu\"\n            }\n        },\n        {\n            \"id\": \"43dacdf4-b52e-4467-8ddd-78157d831fea\",\n            \"collection_id\": \"948a60c7-27ed-4df4-a8ce-4da97ed12328\",\n            \"project_id\": 12827,\n            \"app_user_id\": null,\n            \"created_by\": 106710,\n            \"created_at\": \"2026-04-16T05:04:33.761Z\",\n            \"updated_at\": \"2026-04-16T05:04:34.264Z\",\n            \"deleted_at\": null,\n            \"data\": {\n                \"email\": \"andreu.updated@example.com\",\n                \"last_name\": \"Sarmiento Updated\",\n                \"first_name\": \"Andreu Updated\"\n            }\n        },\n        {\n            \"id\": \"d6b31e25-0b92-4ed6-a975-2f49849b3fe4\",\n            \"collection_id\": \"948a60c7-27ed-4df4-a8ce-4da97ed12328\",\n            \"project_id\": 12827,\n            \"app_user_id\": null,\n            \"created_by\": 106710,\n            \"created_at\": \"2026-04-16T05:04:33.346Z\",\n            \"updated_at\": \"2026-04-16T05:04:33.346Z\",\n            \"deleted_at\": null,\n            \"data\": {\n                \"email\": \"andreu.test@example.com\",\n                \"last_name\": \"Sarmiento\",\n                \"first_name\": \"Andreu\"\n            }\n        },\n        {\n            \"id\": \"3ed1834c-4f3f-482c-aed2-edaf47cb9868\",\n            \"collection_id\": \"948a60c7-27ed-4df4-a8ce-4da97ed12328\",\n            \"project_id\": 12827,\n            \"app_user_id\": null,\n            \"created_by\": 106710,\n            \"created_at\": \"2026-04-16T05:04:31.889Z\",\n            \"updated_at\": \"2026-04-16T05:04:32.483Z\",\n            \"deleted_at\": null,\n            \"data\": {\n                \"email\": \"andreu.updated@example.com\",\n                \"last_name\": \"Sarmiento Updated\",\n                \"first_name\": \"Andreu Updated\"\n            }\n        },\n        {\n            \"id\": \"dd3ee710-fda2-4346-8e32-d7f4cc597c57\",\n            \"collection_id\": \"948a60c7-27ed-4df4-a8ce-4da97ed12328\",\n            \"project_id\": 12827,\n            \"app_user_id\": null,\n            \"created_by\": 106710,\n            \"created_at\": \"2026-04-16T05:04:31.000Z\",\n            \"updated_at\": \"2026-04-16T05:04:31.000Z\",\n            \"deleted_at\": null,\n            \"data\": {\n                \"email\": \"andreu.test@example.com\",\n                \"last_name\": \"Sarmiento\",\n                \"first_name\": \"Andreu\"\n            }\n        },\n        {\n            \"id\": \"02186bc6-83df-4f9e-a733-cc4ebdedfdfd\",\n            \"collection_id\": \"948a60c7-27ed-4df4-a8ce-4da97ed12328\",\n            \"project_id\": 12827,\n            \"app_user_id\": null,\n            \"created_by\": 106710,\n            \"created_at\": \"2026-04-16T05:01:36.453Z\",\n            \"updated_at\": \"2026-04-16T05:01:36.949Z\",\n            \"deleted_at\": null,\n            \"data\": {\n                \"email\": \"andreu.updated@example.com\",\n                \"last_name\": \"Sarmiento Updated\",\n                \"first_name\": \"Andreu Updated\"\n            }\n        },\n        {\n            \"id\": \"ebbd0b53-8e1c-4341-8418-e675bb5b3c71\",\n            \"collection_id\": \"948a60c7-27ed-4df4-a8ce-4da97ed12328\",\n            \"project_id\": 12827,\n            \"app_user_id\": null,\n            \"created_by\": 106710,\n            \"created_at\": \"2026-04-16T05:01:36.025Z\",\n            \"updated_at\": \"2026-04-16T05:01:36.025Z\",\n            \"deleted_at\": null,\n            \"data\": {\n                \"email\": \"andreu.test@example.com\",\n                \"last_name\": \"Sarmiento\",\n                \"first_name\": \"Andreu\"\n            }\n        }\n    ],\n    \"meta\": {\n        \"page\": 1,\n        \"limit\": 10,\n        \"total\": 81,\n        \"pages\": 9\n    }\n}","statusCode":200},"precondition":false,"level":3}]}]}]},{"number":12,"description":"Then la respuesta debe contener al menos un usuario","duration":9,"startTime":"2026-04-16T00:17:28.915973313-05:00[America/Bogota]","result":"SUCCESS","precondition":false,"level":0,"children":[{"number":13,"description":"Then user list response should be a collection with size a value greater than (0)","duration":5,"startTime":"2026-04-16T00:17:28.919629911-05:00[America/Bogota]","result":"SUCCESS","precondition":false,"level":1}]},{"number":14,"description":"And cada usuario debe tener email, first_name y last_name","duration":7,"startTime":"2026-04-16T00:17:28.926132168-05:00[America/Bogota]","result":"SUCCESS","precondition":false,"level":0,"children":[{"number":15,"description":"Then user list response should be every item is map containing [\u0027data\u0027-)ANYTHING]","duration":6,"startTime":"2026-04-16T00:17:28.926549846-05:00[America/Bogota]","result":"SUCCESS","precondition":false,"level":1}]}],"userStory":{"id":"reqres-users","storyName":"Gestion de usuarios en reqres.in Project API","displayName":"Gestion de usuarios en reqres.in Project API","path":"reqres-users","pathElements":[{"name":"reqres-users","description":""}],"narrative":"  Como analista de automatizacion\n  Quiero gestionar usuarios via la API de reqres.in\n  Para validar operaciones CRUD con RestAssured y Screenplay","type":"feature"},"title":"a. Listar usuarios y validar que la respuesta contenga al menos un usuario","description":"","backgroundTitle":"","backgroundDescription":"","tags":[{"name":"listar","type":"tag","displayName":"listar","rawStringFromValueTag":"listar"}],"startTime":"2026-04-16T00:17:28.081273968-05:00[America/Bogota]","endTime":"2026-04-16T00:17:28.934078974-05:00[America/Bogota]","duration":1377,"projectKey":"","isManualTestingUpToDate":false,"manual":false,"testSource":"Cucumber","actors":[{"name":"Analista"}],"result":"SUCCESS"}